"Code","Country","State","Zip/Post Code","Rate","Zip/Post is Range","Range From","Range To","default"
"Austria (standard)","AT","*","","21.0000","","","",""
"Austria (reduced: food / books / pharma / medical / hotels)","AT","*","","9.0000","","","",""
"Austria (zero: Intra-comm. and internat. transp. (air & sea transp.))","AT","*","","0.0000","","","",""
"Belgium (standard)","BE","*","","21.0000","","","",""
"Belgium (reduced: food / books / pharma / medical / hotels)","BE","*","","9.0000","","","",""
"Belgium (zero: Intra-comm. and internat. transp. (air & sea transp.))","BE","*","","0.0000","","","",""
"Bulgaria (standard)","BG","*","","21.0000","","","",""
"Bulgaria (reduced: food / books / pharma / medical / hotels)","BG","*","","9.0000","","","",""
"Bulgaria (zero: Intra-comm. and internat. transp. (air & sea transp.))","BG","*","","0.0000","","","",""
"Croatia (standard)","HR","*","","21.0000","","","",""
"Croatia (reduced: food / books / pharma / medical / hotels)","HR","*","","9.0000","","","",""
"Croatia (zero: Intra-comm. and internat. transp. (air & sea transp.))","HR","*","","0.0000","","","",""
"Cyprus (standard)","CY","*","","21.0000","","","",""
"Cyprus (reduced: food / books / pharma / medical / hotels)","CY","*","","9.0000","","","",""
"Cyprus (zero: Intra-comm. and internat. transp. (air & sea transp.))","CY","*","","0.0000","","","",""
"Czech Republic (standard)","CZ","*","","21.0000","","","",""
"Czech (reduced: food / books / pharma / medical / hotels)","CZ","*","","9.0000","","","",""
"Czech (zero: Intra-comm. and internat. transp. (air & sea transp.))","CZ","*","","0.0000","","","",""
"Denmark (standard)","DK","*","","21.0000","","","",""
"Denmark (reduced: food / books / pharma / medical / hotels)","DK","*","","9.0000","","","",""
"Denmark (zero: Intra-comm. and internat. transp. (air & sea transp.))","DK","*","","0.0000","","","",""
"Estonia (standard)","EE","*","","21.0000","","","",""
"Estonia (reduced: food / books / pharma / medical / hotels)","EE","*","","9.0000","","","",""
"Estonia (zero: Intra-comm. and internat. transp. (air & sea transp.))","EE","*","","0.0000","","","",""
"Finland (standard)","FI","*","","21.0000","","","",""
"Finland (reduced: food / books / pharma / medical / hotels)","FI","*","","9.0000","","","",""
"Finland (zero: Intra-comm. and internat. transp. (air & sea transp.))","FI","*","","0.0000","","","",""
"France (standard)","FR","*","","21.0000","","","",""
"France (reduced: food / books / pharma / medical / hotels)","FR","*","","9.0000","","","",""
"France (zero: Intra-comm. and internat. transp. (air & sea transp.))","FR","*","","0.0000","","","",""
"Germany (standard)","DE","*","","21.0000","","","",""
"Germany (reduced: food / books / pharma / medical / hotels)","DE","*","","9.0000","","","",""
"Germany (zero: Intra-comm. and internat. transp. (air & sea transp.))","DE","*","","0.0000","","","",""
"Greece (standard)","GR","*","","21.0000","","","",""
"Greece (reduced: food / books / pharma / medical / hotels)","GR","*","","9.0000","","","",""
"Greece (zero: Intra-comm. and internat. transp. (air & sea transp.))","GR","*","","0.0000","","","",""
"Hungary (standard)","HU","*","","21.0000","","","",""
"Hungary (reduced: food / books / pharma / medical / hotels)","HU","*","","9.0000","","","",""
"Hungary (zero: Intra-comm. and internat. transp. (air & sea transp.))","HU","*","","0.0000","","","",""
"Ireland (standard)","IE","*","","21.0000","","","",""
"Ireland (reduced: food / books / pharma / medical / hotels)","IE","*","","9.0000","","","",""
"Ireland (zero: Intra-comm. and internat. transp. (air & sea transp.))","IE","*","","0.0000","","","",""
"Italy (standard)","IT","*","","21.0000","","","",""
"Italy (reduced: food / books / pharma / medical / hotels)","IT","*","","9.0000","","","",""
"Italy (zero: Intra-comm. and internat. transp. (air & sea transp.))","IT","*","","0.0000","","","",""
"Latvia (standard)","LV","*","","21.0000","","","",""
"Latvia (reduced: food / books / pharma / medical / hotels)","LV","*","","9.0000","","","",""
"Latvia (zero: Intra-comm. and internat. transp. (air & sea transp.))","LV","*","","0.0000","","","",""
"Lithuania (standard)","LT","*","","21.0000","","","",""
"Lithuania (reduced: food / books / pharma / medical / hotels)","LT","*","","9.0000","","","",""
"Lithuania (zero: Intra-comm. and internat. transp. (air & sea transp.))","LT","*","","0.0000","","","",""
"Luxembourg (standard)","LU","*","","21.0000","","","",""
"Luxembourg (reduced: food / books / pharma / medical / hotels)","LU","*","","9.0000","","","",""
"Luxembourg (zero: Intra-comm. and internat. transp. (air & sea transp.))","LU","*","","0.0000","","","",""
"Malta (standard)","MT","*","","21.0000","","","",""
"Malta (reduced: food / books / pharma / medical / hotels)","MT","*","","9.0000","","","",""
"Malta (zero: Intra-comm. and internat. transp. (air & sea transp.))","MT","*","","0.0000","","","",""
"Netherlands (standard)","NL","*","","21.0000","","","",""
"Netherlands (reduced: food / books / pharma / medical / hotels)","NL","*","","9.0000","","","",""
"Netherlands (zero: Intra-comm. and internat. transp. (air & sea transp.))","NL","*","","0.0000","","","",""
"Poland (standard)","PL","*","","21.0000","","","",""
"Poland (reduced: food / books / pharma / medical / hotels)","PL","*","","9.0000","","","",""
"Poland (zero: Intra-comm. and internat. transp. (air & sea transp.))","PL","*","","0.0000","","","",""
"Portugal (standard)","PT","*","","21.0000","","","",""
"Portugal (reduced: food / books / pharma / medical / hotels)","PT","*","","9.0000","","","",""
"Portugal (zero: Intra-comm. and internat. transp. (air & sea transp.))","PT","*","","0.0000","","","",""
"Romania (standard)","RO","*","","21.0000","","","",""
"Romania (reduced: food / books / pharma / medical / hotels)","RO","*","","9.0000","","","",""
"Romania (zero: Intra-comm. and internat. transp. (air & sea transp.))","RO","*","","0.0000","","","",""
"Slovakia (standard)","SK","*","","21.0000","","","",""
"Slovakia (reduced: food / books / pharma / medical / hotels)","SK","*","","9.0000","","","",""
"Slovakia (zero: Intra-comm. and internat. transp. (air & sea transp.))","SK","*","","0.0000","","","",""
"Slovenia (standard)","SI","*","","21.0000","","","",""
"Slovenia (reduced: food / books / pharma / medical / hotels)","SI","*","","9.0000","","","",""
"Slovenia (zero: Intra-comm. and internat. transp. (air & sea transp.))","SI","*","","0.0000","","","",""
"Spain (standard)","ES","*","","21.0000","","","",""
"Spain (reduced: food / books / pharma / medical / hotels)","ES","*","","9.0000","","","",""
"Spain (zero: Intra-comm. and internat. transp. (air & sea transp.))","ES","*","","0.0000","","","",""
"Sweden (standard)","SE","*","","21.0000","","","",""
"Sweden (reduced: food / books / pharma / medical / hotels)","SE","*","","9.0000","","","",""
"Sweden (zero: Intra-comm. and internat. transp. (air & sea transp.))","SE","*","","0.0000","","","",""
"United Kingdom (standard)","GB","*","","21.0000","","","",""
"United Kingdom (reduced: food / books / pharma / medical / hotels)","GB","*","","9.0000","","","",""
"United Kingdom (zero: Intra-comm. and internat. transp. (air & sea transp.))","GB","*","","0.0000","","","",""